…
``` r
## using cached file: /Users/jeffgoldsmith/Library/Caches/org.R-project.R/R/rnoaa/noaa_ghcnd/USW00094728.dly
## date created (size, mb): 2023-09-19 15:41:55.07359 (8.524)
## file min/max dates: 1869-01-01 / 2023-09-30
## using cached file: /Users/jeffgoldsmith/Library/Caches/org.R-project.R/R/rnoaa/noaa_ghcnd/USW00022534.dly
## date created (size, mb): 2023-09-25 10:06:23.827176 (3.83)
## file min/max dates: 1949-10-01 / 2023-09-30
## using cached file: /Users/jeffgoldsmith/Library/Caches/org.R-project.R/R/rnoaa/noaa_ghcnd/USS0023B17S.dly
## date created (size, mb): 2023-09-19 15:42:03.139582 (0.994)
## file min/max dates: 1999-09-01 / 2023-09-30

weather_df
```

    ## # A tibble: 2,190 × 6
    ##    name           id          date        prcp  tmax  tmin
    ##    <chr>          <chr>       <date>     <dbl> <dbl> <dbl>
    ##  1 CentralPark_NY USW00094728 2021-01-01   157   4.4   0.6
    ##  2 CentralPark_NY USW00094728 2021-01-02    13  10.6   2.2
    ##  3 CentralPark_NY USW00094728 2021-01-03    56   3.3   1.1
    ##  4 CentralPark_NY USW00094728 2021-01-04     5   6.1   1.7
    ##  5 CentralPark_NY USW00094728 2021-01-05     0   5.6   2.2
    ##  6 CentralPark_NY USW00094728 2021-01-06     0   5     1.1
    ##  7 CentralPark_NY USW00094728 2021-01-07     0   5    -1  
    ##  8 CentralPark_NY USW00094728 2021-01-08     0   2.8  -2.7
    ##  9 CentralPark_NY USW00094728 2021-01-09     0   2.8  -4.3
    ## 10 CentralPark_NY USW00094728 2021-01-10     0   5    -1.6
    ## # ℹ 2,180 more rows

``` r
## # A tibble: 2,190 × 6
##    name           id          date        prcp  tmax  tmin
##    <chr>          <chr>       <date>     <dbl> <dbl> <dbl>
##  1 CentralPark_NY USW00094728 2021-01-01   157   4.4   0.6
##  2 CentralPark_NY USW00094728 2021-01-02    13  10.6   2.2
##  3 CentralPark_NY USW00094728 2021-01-03    56   3.3   1.1
##  4 CentralPark_NY USW00094728 2021-01-04     5   6.1   1.7
##  5 CentralPark_NY USW00094728 2021-01-05     0   5.6   2.2
##  6 CentralPark_NY USW00094728 2021-01-06     0   5     1.1
##  7 CentralPark_NY USW00094728 2021-01-07     0   5    -1  
##  8 CentralPark_NY USW00094728 2021-01-08     0   2.8  -2.7
##  9 CentralPark_NY USW00094728 2021-01-09     0   2.8  -4.3
## 10 CentralPark_NY USW00094728 2021-01-10     0   5    -1.6
## # ℹ 2,180 more rows
```
…
